[{"line":1,"elements":[{"line":2,"name":"testing the get call for User Details","description":"","id":"testing-the-get-call-for-user-details","type":"scenario","keyword":"Scenario","steps":[{"name":"url 'https:\/\/reqres.in\/api\/users\/2'","result":{"duration":1630101,"status":"passed"},"match":{"location":"karate","arguments":[]},"keyword":"Given","line":4,"doc_string":{"content_type":"","value":"15:34:09.292 skipping bootstrap configuration: could not find or read file: classpath:karate-config.js","line":4}},{"name":"method GET","result":{"duration":619992827,"status":"passed"},"match":{"location":"karate","arguments":[]},"keyword":"When","line":5,"doc_string":{"content_type":"","value":"15:34:09.438 request:\n1 > GET https:\/\/reqres.in\/api\/users\/2\n1 > Accept-Encoding: gzip,deflate\n1 > Connection: Keep-Alive\n1 > Host: reqres.in\n1 > User-Agent: Apache-HttpClient\/4.5.11 (Java\/1.8.0_265)\n\n15:34:09.892 response time in milliseconds: 442.74\n1 < 200\n1 < Access-Control-Allow-Origin: *\n1 < CF-Cache-Status: REVALIDATED\n1 < CF-RAY: 8bde5afdfc06bfe1-WAW\n1 < Cache-Control: max-age=14400\n1 < Connection: keep-alive\n1 < Content-Type: application\/json; charset=utf-8\n1 < Date: Wed, 04 Sep 2024 13:34:09 GMT\n1 < Etag: W\/\"118-pbdwwFo9SKNhD3Lx5iHJyngpq00\"\n1 < Nel: {\"report_to\":\"heroku-nel\",\"max_age\":3600,\"success_fraction\":0.005,\"failure_fraction\":0.05,\"response_headers\":[\"Via\"]}\n1 < Report-To: {\"group\":\"heroku-nel\",\"max_age\":3600,\"endpoints\":[{\"url\":\"https:\/\/nel.heroku.com\/reports?ts=1725207420&sid=c4c9725f-1ab0-44d8-820f-430df2718e11&s=UORUDqy9LLXEURta6ZfZDF4QMSHKICQ6eCl%2FNDLz61o%3D\"}]}\n1 < Reporting-Endpoints: heroku-nel=https:\/\/nel.heroku.com\/reports?ts=1725207420&sid=c4c9725f-1ab0-44d8-820f-430df2718e11&s=UORUDqy9LLXEURta6ZfZDF4QMSHKICQ6eCl%2FNDLz61o%3D\n1 < Server: cloudflare\n1 < Transfer-Encoding: chunked\n1 < Vary: Accept-Encoding\n1 < Via: 1.1 vegur\n1 < X-Powered-By: Express\n{\"data\":{\"id\":2,\"email\":\"janet.weaver@reqres.in\",\"first_name\":\"Janet\",\"last_name\":\"Weaver\",\"avatar\":\"https:\/\/reqres.in\/img\/faces\/2-image.jpg\"},\"support\":{\"url\":\"https:\/\/reqres.in\/#support-heading\",\"text\":\"To keep ReqRes free, contributions towards server costs are appreciated!\"}}","line":5}},{"name":"status 200","result":{"duration":10347,"status":"passed"},"match":{"location":"karate","arguments":[]},"keyword":"Then","line":6}]},{"line":9,"name":"testing the get call for User Details","description":"","id":"testing-the-get-call-for-user-details","type":"scenario","keyword":"Scenario","steps":[{"name":"url 'https:\/\/reqres.in\/api\/users\/100'","result":{"duration":2146575,"status":"passed"},"match":{"location":"karate","arguments":[]},"keyword":"Given","line":11,"doc_string":{"content_type":"","value":"15:34:09.929 skipping bootstrap configuration: could not find or read file: classpath:karate-config.js","line":11}},{"name":"method GET","result":{"duration":338037457,"status":"passed"},"match":{"location":"karate","arguments":[]},"keyword":"When","line":12,"doc_string":{"content_type":"","value":"15:34:09.932 request:\n1 > GET https:\/\/reqres.in\/api\/users\/100\n1 > Accept-Encoding: gzip,deflate\n1 > Connection: Keep-Alive\n1 > Host: reqres.in\n1 > User-Agent: Apache-HttpClient\/4.5.11 (Java\/1.8.0_265)\n\n15:34:10.269 response time in milliseconds: 335.12\n1 < 404\n1 < Access-Control-Allow-Origin: *\n1 < CF-Cache-Status: EXPIRED\n1 < CF-RAY: 8bde5b00db9abfeb-WAW\n1 < Cache-Control: max-age=14400\n1 < Connection: keep-alive\n1 < Content-Length: 2\n1 < Content-Type: application\/json; charset=utf-8\n1 < Date: Wed, 04 Sep 2024 13:34:10 GMT\n1 < Etag: W\/\"2-vyGp6PvFo4RvsFtPoIWeCReyIC8\"\n1 < Nel: {\"report_to\":\"heroku-nel\",\"max_age\":3600,\"success_fraction\":0.005,\"failure_fraction\":0.05,\"response_headers\":[\"Via\"]}\n1 < Report-To: {\"group\":\"heroku-nel\",\"max_age\":3600,\"endpoints\":[{\"url\":\"https:\/\/nel.heroku.com\/reports?ts=1725456850&sid=c4c9725f-1ab0-44d8-820f-430df2718e11&s=rZ4Apy4qQ5Z9NFLQ9kk5TEP2Fq4%2F5oQODUqXdaCAXcE%3D\"}]}\n1 < Reporting-Endpoints: heroku-nel=https:\/\/nel.heroku.com\/reports?ts=1725456850&sid=c4c9725f-1ab0-44d8-820f-430df2718e11&s=rZ4Apy4qQ5Z9NFLQ9kk5TEP2Fq4%2F5oQODUqXdaCAXcE%3D\n1 < Server: cloudflare\n1 < Vary: Accept-Encoding\n1 < Via: 1.1 vegur\n1 < X-Powered-By: Express\n{}","line":12}},{"name":"status 404","result":{"duration":20463,"status":"passed"},"match":{"location":"karate","arguments":[]},"keyword":"Then","line":13}]},{"line":17,"name":"testing the get call for List users","description":"","id":"testing-the-get-call-for-list-users","type":"scenario","keyword":"Scenario","steps":[{"name":"url 'https:\/\/reqres.in\/api\/users?page=2'","result":{"duration":3917166,"status":"passed"},"match":{"location":"karate","arguments":[]},"keyword":"Given","line":19,"doc_string":{"content_type":"","value":"15:34:10.282 skipping bootstrap configuration: could not find or read file: classpath:karate-config.js","line":19}},{"name":"method GET","result":{"duration":65420857,"status":"passed"},"match":{"location":"karate","arguments":[]},"keyword":"When","line":20,"doc_string":{"content_type":"","value":"15:34:10.289 request:\n1 > GET https:\/\/reqres.in\/api\/users?page=2\n1 > Accept-Encoding: gzip,deflate\n1 > Connection: Keep-Alive\n1 > Host: reqres.in\n1 > User-Agent: Apache-HttpClient\/4.5.11 (Java\/1.8.0_265)\n\n15:34:10.352 response time in milliseconds: 62.41\n1 < 200\n1 < Access-Control-Allow-Origin: *\n1 < Age: 4919\n1 < CF-Cache-Status: HIT\n1 < CF-RAY: 8bde5b026ef0c06f-WAW\n1 < Cache-Control: max-age=14400\n1 < Connection: keep-alive\n1 < Content-Type: application\/json; charset=utf-8\n1 < Date: Wed, 04 Sep 2024 13:34:10 GMT\n1 < Etag: W\/\"406-ut0vzoCuidvyMf8arZpMpJ6ZRDw\"\n1 < Nel: {\"report_to\":\"heroku-nel\",\"max_age\":3600,\"success_fraction\":0.005,\"failure_fraction\":0.05,\"response_headers\":[\"Via\"]}\n1 < Report-To: {\"group\":\"heroku-nel\",\"max_age\":3600,\"endpoints\":[{\"url\":\"https:\/\/nel.heroku.com\/reports?ts=1724858014&sid=c4c9725f-1ab0-44d8-820f-430df2718e11&s=bpxDJGxankad3AQV7uo7ehLUGieIp5yVTEAmM69%2BnDs%3D\"}]}\n1 < Reporting-Endpoints: heroku-nel=https:\/\/nel.heroku.com\/reports?ts=1724858014&sid=c4c9725f-1ab0-44d8-820f-430df2718e11&s=bpxDJGxankad3AQV7uo7ehLUGieIp5yVTEAmM69%2BnDs%3D\n1 < Server: cloudflare\n1 < Transfer-Encoding: chunked\n1 < Vary: Accept-Encoding\n1 < Via: 1.1 vegur\n1 < X-Powered-By: Express\n{\"page\":2,\"per_page\":6,\"total\":12,\"total_pages\":2,\"data\":[{\"id\":7,\"email\":\"michael.lawson@reqres.in\",\"first_name\":\"Michael\",\"last_name\":\"Lawson\",\"avatar\":\"https:\/\/reqres.in\/img\/faces\/7-image.jpg\"},{\"id\":8,\"email\":\"lindsay.ferguson@reqres.in\",\"first_name\":\"Lindsay\",\"last_name\":\"Ferguson\",\"avatar\":\"https:\/\/reqres.in\/img\/faces\/8-image.jpg\"},{\"id\":9,\"email\":\"tobias.funke@reqres.in\",\"first_name\":\"Tobias\",\"last_name\":\"Funke\",\"avatar\":\"https:\/\/reqres.in\/img\/faces\/9-image.jpg\"},{\"id\":10,\"email\":\"byron.fields@reqres.in\",\"first_name\":\"Byron\",\"last_name\":\"Fields\",\"avatar\":\"https:\/\/reqres.in\/img\/faces\/10-image.jpg\"},{\"id\":11,\"email\":\"george.edwards@reqres.in\",\"first_name\":\"George\",\"last_name\":\"Edwards\",\"avatar\":\"https:\/\/reqres.in\/img\/faces\/11-image.jpg\"},{\"id\":12,\"email\":\"rachel.howell@reqres.in\",\"first_name\":\"Rachel\",\"last_name\":\"Howell\",\"avatar\":\"https:\/\/reqres.in\/img\/faces\/12-image.jpg\"}],\"support\":{\"url\":\"https:\/\/reqres.in\/#support-heading\",\"text\":\"To keep ReqRes free, contributions towards server costs are appreciated!\"}}","line":20}},{"name":"status 200","result":{"duration":6090,"status":"passed"},"match":{"location":"karate","arguments":[]},"keyword":"Then","line":21}]}],"name":"src\/test\/java\/ userDetails.feature","description":"fetching User Details","id":"fetching-user-details","keyword":"Feature","uri":"src\/test\/java\/ userDetails.feature"}]